
{
  "project_info": {
    "project_number": "696372299532",
    "project_id": "evoting-system-5a591",
    "storage_bucket": "evoting-system-5a591.appspot.com"
  },
  "client": [
    {
      "client_info": {
        "mobilesdk_app_id": "1:696372299532:android:6a284dff665bbd4a2eeb29",
        "android_client_info": {
          "package_name": "praksa.atos.evotingsystem"
        }
      },
      "oauth_client": [
        {
          "client_id": "696372299532-tu3st1jvtdqkt9qto6io2i2p6hq1dnje.apps.googleusercontent.com",
          "client_type": 3
        }
      ],
      "api_key": [
        {
          "current_key": "AIzaSyAFI2VR5Hp50pLnu2W7h1Bn0k5ujrjXMo4"
        }
      ],
      "services": {
        "appinvite_service": {
          "other_platform_oauth_client": [
            {
              "client_id": "696372299532-tu3st1jvtdqkt9qto6io2i2p6hq1dnje.apps.googleusercontent.com",
              "client_type": 3
            }
          ]
        }
      }
    }
  ],
  "configuration_version": "1"
}